[{"id":1,"fecha":"2017-04-23","importe":"$321.50","latitud":50.404585,"longitud":20.9948039},
{"id":2,"fecha":"2017-04-09","importe":"$82.82","latitud":32.7423216,"longitud":131.178836},
{"id":3,"fecha":"2017-04-26","importe":"$906.89","latitud":35.825603,"longitud":10.608395},
{"id":4,"fecha":"2017-04-30","importe":"$28.42","latitud":22.521523,"longitud":114.055023},
{"id":5,"fecha":"2017-07-30","importe":"$673.63","latitud":30.0450571,"longitud":52.2762322},
{"id":6,"fecha":"2017-04-23","importe":"$55.95","latitud":"29.9","longitud":"31.25"},
{"id":7,"fecha":"2017-08-16","importe":"$481.25","latitud":55.3293156,"longitud":42.0426795},
{"id":8,"fecha":"2017-04-06","importe":"$610.31","latitud":48.7736083,"longitud":44.8250459},
{"id":9,"fecha":"2017-03-26","importe":"$203.15","latitud":45.7479837,"longitud":21.2472912},
{"id":10,"fecha":"2017-03-27","importe":"$422.13","latitud":60.3802969,"longitud":23.9618656},
{"id":11,"fecha":"2017-02-15","importe":"$440.47","latitud":-34.3583236,"longitud":-57.0479481},
{"id":12,"fecha":"2017-02-10","importe":"$785.87","latitud":43.1315785,"longitud":-79.1040432},
{"id":13,"fecha":"2017-11-16","importe":"$794.76","latitud":49.2211865,"longitud":-68.1518275},
{"id":14,"fecha":"2017-02-22","importe":"$255.93","latitud":25.5822549,"longitud":-100.9086492},
{"id":15,"fecha":"2017-07-02","importe":"$588.97","latitud":40.608793,"longitud":115.099494},
{"id":16,"fecha":"2017-08-17","importe":"$508.80","latitud":49.660696,"longitud":25.1434666},
{"id":17,"fecha":"2017-11-30","importe":"$147.30","latitud":53.1859207,"longitud":22.0862303},
{"id":18,"fecha":"2017-12-14","importe":"$950.44","latitud":7.3139328,"longitud":-11.3062382},
{"id":19,"fecha":"2017-11-29","importe":"$533.43","latitud":46.8435126,"longitud":74.9809805},
{"id":20,"fecha":"2017-01-14","importe":"$67.45","latitud":39.0269443,"longitud":-94.6673484},
{"id":21,"fecha":"2017-01-23","importe":"$217.22","latitud":50.555034,"longitud":20.040976},
{"id":22,"fecha":"2017-08-05","importe":"$243.20","latitud":"45.0098","longitud":"41.1512"},
{"id":23,"fecha":"2017-03-10","importe":"$475.19","latitud":3.1121428,"longitud":101.6935065},
{"id":24,"fecha":"2017-05-20","importe":"$926.62","latitud":13.657613,"longitud":100.3976471},
{"id":25,"fecha":"2017-03-08","importe":"$844.53","latitud":24.385642,"longitud":102.554313},
{"id":26,"fecha":"2017-10-28","importe":"$908.47","latitud":-7.8184706,"longitud":110.3922413},
{"id":27,"fecha":"2017-03-22","importe":"$793.18","latitud":"14.9398","longitud":"33.234"},
{"id":28,"fecha":"2017-12-20","importe":"$142.24","latitud":38.460109,"longitud":-28.190947},
{"id":29,"fecha":"2017-11-28","importe":"$570.06","latitud":"16.9022","longitud":"121.76191"},
{"id":30,"fecha":"2017-08-17","importe":"$859.42","latitud":34.7603737,"longitud":127.6622221},
{"id":31,"fecha":"2017-03-28","importe":"$362.78","latitud":-20.1914261,"longitud":32.6333973},
{"id":32,"fecha":"2017-07-22","importe":"$874.26","latitud":41.806843,"longitud":123.50114},
{"id":33,"fecha":"2017-01-15","importe":"$968.90","latitud":49.16291,"longitud":127.98658},
{"id":34,"fecha":"2017-06-15","importe":"$0.68","latitud":34.414961,"longitud":115.656339},
{"id":35,"fecha":"2017-09-11","importe":"$593.38","latitud":49.617087,"longitud":19.353513},
{"id":36,"fecha":"2018-01-07","importe":"$129.80","latitud":49.9846987,"longitud":18.4044199},
{"id":37,"fecha":"2017-03-18","importe":"$239.66","latitud":31.723247,"longitud":119.597896},
{"id":38,"fecha":"2017-07-06","importe":"$574.07","latitud":10.7703265,"longitud":122.9829759},
{"id":39,"fecha":"2017-05-15","importe":"$151.86","latitud":7.32688,"longitud":124.297205},
{"id":40,"fecha":"2017-09-06","importe":"$757.12","latitud":23.7247599,"longitud":108.8076195},
{"id":41,"fecha":"2017-07-27","importe":"$542.69","latitud":63.8288884,"longitud":20.2663426},
{"id":42,"fecha":"2017-10-03","importe":"$546.67","latitud":43.3531543,"longitud":-1.6300821},
{"id":43,"fecha":"2017-11-08","importe":"$480.87","latitud":5.0172519,"longitud":-72.189},
{"id":44,"fecha":"2017-02-17","importe":"$663.04","latitud":44.0731738,"longitud":15.2838313},
{"id":45,"fecha":"2017-04-28","importe":"$823.74","latitud":-8.7368981,"longitud":24.9872821},
{"id":46,"fecha":"2017-09-26","importe":"$614.87","latitud":34.682497,"longitud":103.359019},
{"id":47,"fecha":"2017-05-25","importe":"$510.33","latitud":34.477861,"longitud":110.084789},
{"id":48,"fecha":"2017-04-01","importe":"$562.50","latitud":48.1030253,"longitud":102.5606182},
{"id":49,"fecha":"2017-03-05","importe":"$143.57","latitud":50.2940131,"longitud":13.9874928},
{"id":50,"fecha":"2017-04-23","importe":"$53.20","latitud":43.0712553,"longitud":46.5659164},
{"id":51,"fecha":"2017-05-04","importe":"$721.02","latitud":41.4030479,"longitud":-8.2430192},
{"id":52,"fecha":"2017-10-30","importe":"$418.44","latitud":13.8156076,"longitud":102.6675575},
{"id":53,"fecha":"2017-07-25","importe":"$794.52","latitud":57.512722,"longitud":72.40078},
{"id":54,"fecha":"2017-04-27","importe":"$474.86","latitud":32.6434902,"longitud":35.9396453},
{"id":55,"fecha":"2017-09-23","importe":"$142.30","latitud":31.237906,"longitud":121.41794},
{"id":56,"fecha":"2017-12-10","importe":"$846.85","latitud":34.756916,"longitud":114.441285},
{"id":57,"fecha":"2017-06-17","importe":"$550.70","latitud":7.38153,"longitud":-73.919121},
{"id":58,"fecha":"2018-01-08","importe":"$666.05","latitud":-8.7636824,"longitud":121.7238208},
{"id":59,"fecha":"2017-09-16","importe":"$48.48","latitud":36.0558208,"longitud":40.731064},
{"id":60,"fecha":"2017-01-13","importe":"$227.98","latitud":39.952319,"longitud":119.598195},
{"id":61,"fecha":"2017-05-23","importe":"$892.77","latitud":54.2042169,"longitud":27.8532022},
{"id":62,"fecha":"2017-07-10","importe":"$834.31","latitud":15.9754252,"longitud":120.3554727},
{"id":63,"fecha":"2017-12-08","importe":"$161.90","latitud":53.4231032,"longitud":-7.9428197},
{"id":64,"fecha":"2017-09-12","importe":"$148.73","latitud":6.6802044,"longitud":101.4112049},
{"id":65,"fecha":"2017-07-06","importe":"$107.84","latitud":5.472709,"longitud":-74.667984},
{"id":66,"fecha":"2017-03-02","importe":"$352.30","latitud":19.3947363,"longitud":-70.5263459},
{"id":67,"fecha":"2017-08-21","importe":"$463.22","latitud":46.1544155,"longitud":14.9301007},
{"id":68,"fecha":"2017-07-06","importe":"$400.52","latitud":1.699532,"longitud":32.0733109},
{"id":69,"fecha":"2017-12-24","importe":"$711.79","latitud":13.7464901,"longitud":100.5129096},
{"id":70,"fecha":"2017-10-12","importe":"$470.43","latitud":0.4864487,"longitud":32.4764443},
{"id":71,"fecha":"2017-06-29","importe":"$18.49","latitud":32.31876,"longitud":118.930364},
{"id":72,"fecha":"2017-06-10","importe":"$448.46","latitud":28.362805,"longitud":118.400294},
{"id":73,"fecha":"2017-03-05","importe":"$3.86","latitud":7.3400337,"longitud":125.6321356},
{"id":74,"fecha":"2018-01-02","importe":"$157.62","latitud":-7.992641,"longitud":112.624117},
{"id":75,"fecha":"2017-02-02","importe":"$812.89","latitud":"-6.58096","longitud":"106.10632"},
{"id":76,"fecha":"2017-05-01","importe":"$580.23","latitud":14.0666041,"longitud":-87.4678266},
{"id":77,"fecha":"2017-08-28","importe":"$47.00","latitud":45.1181926,"longitud":21.2944883},
{"id":78,"fecha":"2017-05-06","importe":"$493.17","latitud":"27.42839","longitud":"85.03219"},
{"id":79,"fecha":"2018-01-02","importe":"$926.74","latitud":-1.509435,"longitud":101.060699},
{"id":80,"fecha":"2017-09-08","importe":"$298.15","latitud":40.6815206,"longitud":14.7703255},
{"id":81,"fecha":"2017-12-02","importe":"$619.66","latitud":33.012631,"longitud":110.745729},
{"id":82,"fecha":"2017-07-26","importe":"$936.42","latitud":51.7920135,"longitud":-114.105279},
{"id":83,"fecha":"2017-09-17","importe":"$755.24","latitud":-13.5066591,"longitud":-71.9927391},
{"id":84,"fecha":"2017-07-05","importe":"$95.02","latitud":48.6853182,"longitud":6.1519039},
{"id":85,"fecha":"2017-08-09","importe":"$625.23","latitud":48.679041,"longitud":5.8805771},
{"id":86,"fecha":"2017-03-11","importe":"$844.36","latitud":59.9959635,"longitud":30.2984767},
{"id":87,"fecha":"2017-09-27","importe":"$897.98","latitud":37.9510555,"longitud":23.5280223},
{"id":88,"fecha":"2017-12-16","importe":"$454.67","latitud":17.9567646,"longitud":-102.1943485},
{"id":89,"fecha":"2017-01-11","importe":"$772.05","latitud":"-7.2324","longitud":"108.1252"},
{"id":90,"fecha":"2017-04-30","importe":"$594.73","latitud":5.596767,"longitud":-75.819361},
{"id":91,"fecha":"2017-04-03","importe":"$161.65","latitud":22.550092,"longitud":111.865917},
{"id":92,"fecha":"2017-09-04","importe":"$374.65","latitud":53.7667424,"longitud":91.3992147},
{"id":93,"fecha":"2017-09-10","importe":"$583.62","latitud":26.887238,"longitud":109.735661},
{"id":94,"fecha":"2017-08-05","importe":"$341.74","latitud":-8.2481387,"longitud":124.2227061},
{"id":95,"fecha":"2017-06-21","importe":"$143.43","latitud":18.5118006,"longitud":105.2662931},
{"id":96,"fecha":"2017-01-12","importe":"$564.29","latitud":40.835835,"longitud":-7.8169615},
{"id":97,"fecha":"2017-07-21","importe":"$359.18","latitud":14.83302,"longitud":120.2805849},
{"id":98,"fecha":"2017-02-06","importe":"$553.63","latitud":10.385548,"longitud":125.213831},
{"id":99,"fecha":"2017-06-22","importe":"$35.65","latitud":40.0017058,"longitud":-7.7141554},
{"id":100,"fecha":"2017-03-28","importe":"$747.81","latitud":5.2306075,"longitud":95.8670405}]