[{"id":1,"fecha":"2017-07-11","importe":"734.49","latitud":5.3794023,"longitud":-73.6557707,"ciudad":"Guachetá"},
{"id":2,"fecha":"2017-12-08","importe":"550.20","latitud":13.7832268,"longitud":120.9891643,"ciudad":"Bauan"},
{"id":3,"fecha":"2017-04-18","importe":"77.66","latitud":48.3245206,"longitud":35.9379288,"ciudad":"Pervomays’ke"},
{"id":4,"fecha":"2017-05-22","importe":"116.52","latitud":34.6850948,"longitud":138.1992472,"ciudad":"Sagara"},
{"id":5,"fecha":"2017-04-12","importe":"944.65","latitud":30.427416,"longitud":113.367059,"ciudad":"Duoxiang"},
{"id":6,"fecha":"2017-01-24","importe":"784.88","latitud":44.0678168,"longitud":6.9855112,"ciudad":"Nice"},
{"id":7,"fecha":"2017-12-28","importe":"742.59","latitud":14.5699334,"longitud":121.0204582,"ciudad":"San Jose"},
{"id":8,"fecha":"2017-08-23","importe":"304.49","latitud":-25.6962731,"longitud":28.7023068,"ciudad":"Bronkhorstspruit"},
{"id":9,"fecha":"2017-01-11","importe":"730.33","latitud":60.3734699,"longitud":21.9469705,"ciudad":"Rymättylä"},
{"id":10,"fecha":"2017-07-07","importe":"683.83","latitud":-7.482537,"longitud":112.6004965,"ciudad":"Gampang"},
{"id":11,"fecha":"2017-04-24","importe":"189.13","latitud":35.837344,"longitud":103.519169,"ciudad":"Baiju"},
{"id":12,"fecha":"2017-09-16","importe":"793.72","latitud":49.4928119,"longitud":-117.2948343,"ciudad":"Nelson"},
{"id":13,"fecha":"2017-10-02","importe":"329.60","latitud":50.5763759,"longitud":22.059689,"ciudad":"Stalowa Wola"},
{"id":14,"fecha":"2017-10-08","importe":"795.18","latitud":47.4912362,"longitud":19.0858151,"ciudad":"Budapest"},
{"id":15,"fecha":"2017-05-25","importe":"179.87","latitud":41.7644599,"longitud":-72.6729522,"ciudad":"Hartford"},
{"id":16,"fecha":"2017-01-16","importe":"105.52","latitud":-7.6095457,"longitud":110.9655659,"ciudad":"Tegalgede Kulon"},
{"id":17,"fecha":"2017-03-21","importe":"969.87","latitud":25.941937,"longitud":117.365052,"ciudad":"Yong’an"},
{"id":18,"fecha":"2017-09-18","importe":"292.42","latitud":30.793647,"longitud":106.074668,"ciudad":"Biancheng"},
{"id":19,"fecha":"2017-01-29","importe":"181.22","latitud":"52.5643","longitud":"31.1364","ciudad":"Khal’ch"},
{"id":20,"fecha":"2017-12-22","importe":"795.79","latitud":51.5000229,"longitud":15.1996268,"ciudad":"Iłowa"},
{"id":21,"fecha":"2017-11-24","importe":"530.39","latitud":29.237137,"longitud":91.773134,"ciudad":"Shanban"},
{"id":22,"fecha":"2017-07-10","importe":"295.56","latitud":-6.147133,"longitud":106.6232359,"ciudad":"Neglasari"},
{"id":23,"fecha":"2017-03-17","importe":"168.03","latitud":53.6992181,"longitud":46.0481025,"ciudad":"Nikol’sk"},
{"id":24,"fecha":"2018-01-06","importe":"613.65","latitud":59.4556319,"longitud":15.7572629,"ciudad":"Täby"},
{"id":25,"fecha":"2017-10-19","importe":"239.49","latitud":32.0302286,"longitud":-6.7969224,"ciudad":"Tabia"},
{"id":26,"fecha":"2017-04-21","importe":"214.39","latitud":29.65,"longitud":-82.33,"ciudad":"Gainesville"},
{"id":27,"fecha":"2017-09-27","importe":"790.08","latitud":-21.266667,"longitud":46.983333,"ciudad":"Antsohimbondrona"},
{"id":28,"fecha":"2017-04-03","importe":"490.18","latitud":50.1076329,"longitud":18.4682284,"ciudad":"Jejkowice"},
{"id":29,"fecha":"2017-03-22","importe":"361.72","latitud":36.650038,"longitud":101.766228,"ciudad":"Chengbei"},
{"id":30,"fecha":"2017-02-05","importe":"802.16","latitud":"-8.298","longitud":"120.4623","ciudad":"Senggapi"},
{"id":31,"fecha":"2017-05-12","importe":"471.71","latitud":15.9272632,"longitud":107.6392892,"ciudad":"Prao"},
{"id":32,"fecha":"2017-06-29","importe":"954.85","latitud":-12.1432701,"longitud":17.281417,"ciudad":"Catabola"},
{"id":33,"fecha":"2017-06-15","importe":"574.43","latitud":38.828834,"longitud":139.9059015,"ciudad":"Shimada"},
{"id":34,"fecha":"2017-10-21","importe":"123.38","latitud":-8.2922696,"longitud":120.4415242,"ciudad":"Wangkung"},
{"id":35,"fecha":"2018-01-01","importe":"189.87","latitud":26.3705389,"longitud":118.2323381,"ciudad":"Tadou"},
{"id":36,"fecha":"2017-06-22","importe":"933.00","latitud":-6.377185,"longitud":37.3747104,"ciudad":"Magole"},
{"id":37,"fecha":"2017-09-26","importe":"349.35","latitud":43.262695,"longitud":45.6506664,"ciudad":"Pyatigorskiy"},
{"id":38,"fecha":"2017-08-25","importe":"839.30","latitud":-20.6121259,"longitud":-51.8287077,"ciudad":"Três Lagoas"},
{"id":39,"fecha":"2017-09-13","importe":"318.92","latitud":-21.9310093,"longitud":-50.5069723,"ciudad":"Tupã"},
{"id":40,"fecha":"2017-05-02","importe":"826.25","latitud":35.86166,"longitud":104.195397,"ciudad":"Chiba"},
{"id":41,"fecha":"2017-04-06","importe":"280.06","latitud":30.979545,"longitud":101.125237,"ciudad":"Dawu"},
{"id":42,"fecha":"2017-01-27","importe":"574.97","latitud":-23.3058194,"longitud":-47.1367011,"ciudad":"Cabreúva"},
{"id":43,"fecha":"2017-04-21","importe":"948.68","latitud":52.2649866,"longitud":18.4265865,"ciudad":"Kramsk"},
{"id":44,"fecha":"2017-10-25","importe":"454.60","latitud":52.6244001,"longitud":20.3835279,"ciudad":"Płońsk"},
{"id":45,"fecha":"2017-12-24","importe":"272.22","latitud":40.500471,"longitud":-3.6673942,"ciudad":"Madrid"},
{"id":46,"fecha":"2017-07-25","importe":"74.89","latitud":-12.753316,"longitud":45.2300515,"ciudad":"Koungou"},
{"id":47,"fecha":"2017-11-25","importe":"962.08","latitud":-14.0691337,"longitud":-70.4281661,"ciudad":"Curibaya"},
{"id":48,"fecha":"2018-01-10","importe":"574.22","latitud":-29.7516119,"longitud":-50.013964,"ciudad":"Capão da Canoa"},
{"id":49,"fecha":"2017-03-13","importe":"790.05","latitud":14.2116743,"longitud":121.1551767,"ciudad":"Parion"},
{"id":50,"fecha":"2017-08-07","importe":"174.27","latitud":19.6677746,"longitud":-72.6757236,"ciudad":"Gros Morne"},
{"id":51,"fecha":"2017-12-01","importe":"964.57","latitud":13.274365,"longitud":120.618416,"ciudad":"Mamburao"},
{"id":52,"fecha":"2017-09-11","importe":"593.04","latitud":-6.8312395,"longitud":111.95523,"ciudad":"Sugihan"},
{"id":53,"fecha":"2017-05-27","importe":"140.29","latitud":13.2892111,"longitud":-86.6548114,"ciudad":"San José de Cusmapa"},
{"id":54,"fecha":"2017-04-16","importe":"178.86","latitud":14.8853727,"longitud":120.8986655,"ciudad":"Bulihan"},
{"id":55,"fecha":"2017-01-18","importe":"452.05","latitud":-8.7597358,"longitud":120.9905,"ciudad":"Naru"},
{"id":56,"fecha":"2017-06-29","importe":"788.27","latitud":49.1912902,"longitud":15.0524346,"ciudad":"Jarošov nad Nežárkou"},
{"id":57,"fecha":"2017-10-31","importe":"753.95","latitud":14.5951658,"longitud":121.4276451,"ciudad":"Daraitan"},
{"id":58,"fecha":"2017-02-16","importe":"954.72","latitud":29.987954,"longitud":112.115401,"ciudad":"Jiazhuyuan"},
{"id":59,"fecha":"2017-10-08","importe":"423.65","latitud":53.149977,"longitud":140.6634789,"ciudad":"Nikolayevsk"},
{"id":60,"fecha":"2017-11-14","importe":"423.94","latitud":51.5429846,"longitud":21.0004876,"ciudad":"Stara Błotnica"},
{"id":61,"fecha":"2017-07-04","importe":"354.38","latitud":12.6661944,"longitud":108.0382475,"ciudad":"Buôn Ma Thuột"},
{"id":62,"fecha":"2017-08-23","importe":"792.51","latitud":47.9838092,"longitud":-4.0325499,"ciudad":"Quimper"},
{"id":63,"fecha":"2017-07-08","importe":"651.85","latitud":39.538047,"longitud":116.683752,"ciudad":"Yangfang"},
{"id":64,"fecha":"2017-12-02","importe":"643.20","latitud":47.6519866,"longitud":-2.0882566,"ciudad":"Redon"},
{"id":65,"fecha":"2017-03-14","importe":"462.88","latitud":-14.1187849,"longitud":-72.2475967,"ciudad":"Challhuahuacho"},
{"id":66,"fecha":"2017-08-12","importe":"449.72","latitud":26.982106,"longitud":117.980053,"ciudad":"Kuzhu"},
{"id":67,"fecha":"2017-06-26","importe":"762.24","latitud":45.4592577,"longitud":75.2050312,"ciudad":"Koktal"},
{"id":68,"fecha":"2017-07-27","importe":"859.41","latitud":-34.2965929,"longitud":-55.9525652,"ciudad":"San Ramón"},
{"id":69,"fecha":"2017-06-18","importe":"310.54","latitud":-31.413822,"longitud":-64.485902,"ciudad":"Villa Carlos Paz"},
{"id":70,"fecha":"2017-03-06","importe":"112.56","latitud":48.5851876,"longitud":7.7342943,"ciudad":"Strasbourg"},
{"id":71,"fecha":"2017-04-27","importe":"986.77","latitud":41.7941883,"longitud":123.3695459,"ciudad":"Obo"},
{"id":72,"fecha":"2017-06-04","importe":"95.78","latitud":40.5,"longitud":-80.06,"ciudad":"Pittsburgh"},
{"id":73,"fecha":"2017-08-19","importe":"221.91","latitud":50.4350286,"longitud":18.0987896,"ciudad":"Rozwadza"},
{"id":74,"fecha":"2017-06-11","importe":"229.42","latitud":37.1597829,"longitud":-7.9440252,"ciudad":"Malhão"},
{"id":75,"fecha":"2017-06-20","importe":"50.73","latitud":45.3859182,"longitud":-71.936914,"ciudad":"Sherbrooke"},
{"id":76,"fecha":"2017-11-15","importe":"421.55","latitud":6.878872,"longitud":126.169972,"ciudad":"Mamali"},
{"id":77,"fecha":"2017-05-24","importe":"77.32","latitud":38.656755,"longitud":76.46606,"ciudad":"Kezilei"},
{"id":78,"fecha":"2017-06-06","importe":"285.57","latitud":43.9015048,"longitud":22.2738011,"ciudad":"Zaječar"},
{"id":79,"fecha":"2017-12-18","importe":"529.93","latitud":53.94204,"longitud":37.1563793,"ciudad":"Krapivna"},
{"id":80,"fecha":"2017-03-21","importe":"493.30","latitud":17.9567646,"longitud":-102.1943485,"ciudad":"Lazaro Cardenas"},
{"id":81,"fecha":"2017-07-14","importe":"58.99","latitud":18.2540705,"longitud":-70.3600393,"ciudad":"Baní"},
{"id":82,"fecha":"2018-01-06","importe":"911.37","latitud":-8.4578388,"longitud":115.0104608,"ciudad":"Selemadeg Kelod"},
{"id":83,"fecha":"2017-04-18","importe":"146.83","latitud":16.2107446,"longitud":102.4839212,"ciudad":"Mancha Khiri"},
{"id":84,"fecha":"2017-09-05","importe":"726.61","latitud":-7.6031332,"longitud":108.5344435,"ciudad":"Selasari"},
{"id":85,"fecha":"2017-10-04","importe":"802.46","latitud":-16.328546,"longitud":-48.953403,"ciudad":"Anápolis"},
{"id":86,"fecha":"2017-09-16","importe":"925.09","latitud":36.8537392,"longitud":-76.2652909,"ciudad":"Norfolk"},
{"id":87,"fecha":"2017-09-09","importe":"362.20","latitud":45.2977605,"longitud":2.5135985,"ciudad":"Dijon"},
{"id":88,"fecha":"2017-12-15","importe":"544.02","latitud":-21.6368446,"longitud":-41.0484428,"ciudad":"São João da Barra"},
{"id":89,"fecha":"2017-11-10","importe":"583.43","latitud":11.9891869,"longitud":106.7942405,"ciudad":"Bù Đốp"},
{"id":90,"fecha":"2017-05-03","importe":"793.67","latitud":59.3429221,"longitud":18.0922798,"ciudad":"Stockholm"},
{"id":91,"fecha":"2017-08-23","importe":"304.79","latitud":39.6288756,"longitud":-8.6708785,"ciudad":"Sihai"},
{"id":92,"fecha":"2017-02-07","importe":"223.38","latitud":36.905485,"longitud":140.4069331,"ciudad":"Ueda"},
{"id":93,"fecha":"2017-08-05","importe":"859.86","latitud":47.8632224,"longitud":0.8648422,"ciudad":"L'Union"},
{"id":94,"fecha":"2017-01-19","importe":"86.84","latitud":56.4477313,"longitud":13.6156546,"ciudad":"Markaryd"},
{"id":95,"fecha":"2017-11-17","importe":"617.06","latitud":45.0636892,"longitud":42.0043376,"ciudad":"Mikhaylovskoye"},
{"id":96,"fecha":"2017-03-17","importe":"416.85","latitud":41.3044511,"longitud":-8.5943326,"ciudad":"Quintão"},
{"id":97,"fecha":"2017-10-02","importe":"157.73","latitud":49.6043364,"longitud":15.5796552,"ciudad":"Havlíčkův Brod"},
{"id":98,"fecha":"2017-07-24","importe":"875.78","latitud":"15.45417","longitud":"45.01667","ciudad":"Sūq Şirwāḩ"},
{"id":99,"fecha":"2017-04-14","importe":"298.06","latitud":30.4649282,"longitud":-84.3857442,"ciudad":"Tallahassee"},
{"id":100,"fecha":"2017-04-04","importe":"20.74","latitud":-20.179973,"longitud":-48.0309631,"ciudad":"Miguelópolis"}]
